…
When I run each line of code, I find that R converts the logical vector into numbers where TRUE = 1 and FALSE = 0. This makes sense as the logical vector returns only two values. However, the character vector is converted to NAs for each entry. It doesn't make much sense for R to convert these words to numbers, since they don't have as clear of a numeric meaning as TRUE / FALSE. That explains why I could find the mean of the logical vector but not the character vector above.

The factor vector entries are converted into 1, 2, or 3 depending on factor level. I can even find the mean of this numeric vector to be 2.1. One could infer that this means "MCA" (level 2) and "Mike D" (level 3) appear more frequently in this list, but a frequency table may be more informative in this case.

## Problem 2

I'll start by loading the `penguins` data set.

``` r
data("penguins", package = "palmerpenguins")
penguins
```

    ## # A tibble: 344 × 8
    ##    species island    bill_length_mm bill_depth_mm flipper_length_mm body_mass_g
    ##    <fct>   <fct>              <dbl>         <dbl>             <int>       <int>
    ##  1 Adelie  Torgersen           39.1          18.7               181        3750
    ##  2 Adelie  Torgersen           39.5          17.4               186        3800
    ##  3 Adelie  Torgersen           40.3          18                 195        3250
    ##  4 Adelie  Torgersen           NA            NA                  NA          NA
    ##  5 Adelie  Torgersen           36.7          19.3               193        3450
    ##  6 Adelie  Torgersen           39.3          20.6               190        3650
    ##  7 Adelie  Torgersen           38.9          17.8               181        3625
    ##  8 Adelie  Torgersen           39.2          19.6               195        4675
    ##  9 Adelie  Torgersen           34.1          18.1               193        3475
    ## 10 Adelie  Torgersen           42            20.2               190        4250
    ## # … with 334 more rows, and 2 more variables: sex <fct>, year <int>
…
